{
  "devToolsPort": 19002,
  "expoServerPort": 19000,
  "packagerPort": 19001,
  "packagerPid": 14604,
  "expoServerNgrokUrl": "https://s8-x3n.anonymous.main-bersama.exp.direct",
  "packagerNgrokUrl": "https://packager.s8-x3n.anonymous.main-bersama.exp.direct",
  "ngrokPid": 19132,
  "webpackServerPort": null
}
